module github.com/waldirborbajr/devopsgui

go 1.21.3

require (
	github.com/pbnjay/memory v0.0.0-20210728143218-7b4eea64cf58
	github.com/rivo/tview v0.0.0-20231007183732-6c844bdc5f7a
)

require (
	github.com/gdamore/encoding v1.0.0 // indirect
	github.com/gdamore/tcell/v2 v2.6.0 // indirect
	github.com/lucasb-eyer/go-colorful v1.2.0 // indirect
	github.com/mattn/go-runewidth v0.0.14 // indirect
	github.com/rivo/uniseg v0.4.3 // indirect
	golang.org/x/sys v0.5.0 // indirect
	golang.org/x/term v0.5.0 // indirect
	golang.org/x/text v0.7.0 // indirect
)
